…
Adjuntando el paquete: ‘lubridate’

The following objects are masked from ‘package:base’:

    date, intersect, setdiff, union

https://www.biobiochile.cl/lista/busca-2020/categorias/nacional (estado: 200)
Se obtuvieron 19 noticias en https://www.biobiochile.cl/lista/busca-2020/categorias/nacional
https://www.biobiochile.cl/lista/busca-2020/categorias/economia (estado: 200)
Se obtuvieron 19 noticias en https://www.biobiochile.cl/lista/busca-2020/categorias/economia
https://www.biobiochile.cl/lista/categorias/opinion (estado: 200)
Se obtuvieron 19 noticias en https://www.biobiochile.cl/lista/categorias/opinion
# A tibble: 57 × 2
   enlace                                                                 origen
   <chr>                                                                  <chr> 
 1 https://www.biobiochile.cl/noticias/nacional/chile/2024/09/08/confirm… https…
 2 https://www.biobiochile.cl/noticias/nacional/region-del-bio-bio/2024/… https…
 3 https://www.biobiochile.cl/noticias/nacional/chile/2024/09/08/diputad… https…
 4 https://www.biobiochile.cl/noticias/nacional/chile/2024/09/08/manouch… https…
 5 https://www.biobiochile.cl/noticias/nacional/region-del-bio-bio/2024/… https…
 6 https://www.biobiochile.cl/noticias/nacional/region-de-los-rios/2024/… https…
 7 https://www.biobiochile.cl/noticias/nacional/region-de-la-araucania/2… https…
 8 https://www.biobiochile.cl/noticias/nacional/region-del-bio-bio/2024/… https…
 9 https://www.biobiochile.cl/noticias/nacional/region-metropolitana/202… https…
10 https://www.biobiochile.cl/noticias/nacional/region-de-los-lagos/2024… https…
# ℹ 47 more rows
…
